Project1: Exploratory Data Analysis
…
## # A tibble: 6 x 2
##   state  mean_pop
##   <chr>     <dbl>
## 1 AK      457582.
## 2 AL     3294073.
## 3 AR     2047458.
## 4 AZ     2044898.
## 5 CA    16665527.
## 6 CO     2193060.

mean_pop %>% arrange(desc(mean_pop))

## # A tibble: 51 x 2
##    state  mean_pop
##    <chr>     <dbl>
##  1 CA    16665527.
##  2 NY    14968232.
##  3 TX    11252009.
##  4 PA    10541881.
##  5 IL     9407587.
##  6 OH     8624785.
##  7 MI     6886250.
##  8 FL     6810191.
##  9 NJ     5683516.
## 10 MA     4986927.
## # ... with 41 more rows
…
## # A tibble: 6 x 2
##   state       male
##   <fct>      <dbl>
## 1 Alabama     288.
## 2 Alaska      262.
## 3 Arizona     207.
## 4 Arkansas    288.
## 5 California  222.
## 6 Colorado    204.

male_rate %>% arrange(desc(male))

## # A tibble: 49 x 2
##    state           male
##    <fct>          <dbl>
##  1 Mississippi     301.
##  2 Louisiana       301.
##  3 Kentucky        298.
##  4 South Carolina  290.
##  5 Arkansas        288.
##  6 Alabama         288.
##  7 Georgia         287.
##  8 Tennessee       285.
##  9 Virginia        279.
## 10 North Carolina  276.
## # ... with 39 more rows
head(female_rate)

## # A tibble: 6 x 2
##   state      female_cancer
##   <fct>              <dbl>
## 1 Alabama             162.
## 2 Alaska              183.
## 3 Arizona             144.
## 4 Arkansas            170.
## 5 California          161.
## 6 Colorado            151.

female_rate %>% arrange(desc(female_cancer))

## # A tibble: 49 x 2
##    state         female_cancer
##    <fct>                 <dbl>
##  1 Alaska                 183.
##  2 Kentucky               182.
##  3 West Virginia          181.
##  4 Louisiana              180.
##  5 Delaware               178.
##  6 New Jersey             178.
##  7 Maine                  178.
##  8 Virginia               175.
##  9 New York               174.
## 10 Nevada                 173.
## # ... with 39 more rows
…
head(merged)

## # A tibble: 6 x 3
##   state  mean_pop avg_state
##   <chr>     <dbl>     <dbl>
## 1 AK      457582.      214.
## 2 AL     3294073.      225.
## 3 AR     2047458.      229.
## 4 AZ     2044898.      175.
## 5 CA    16665527.      192.
## 6 CO     2193060.      174.

merged %>% arrange(desc(avg_state))

## # A tibble: 51 x 3
##    state mean_pop avg_state
##    <chr>    <dbl>     <dbl>
##  1 KY    3139753.      241.
##  2 KS    2135756       240.
##  3 MN    3437172.      235.
##  4 AR    2047458.      229.
##  5 SD     665790.      228.
##  6 RI     819150.      227.
##  7 VT     442690.      227.
##  8 WA    3162419.      227.
##  9 GA    4755548.      226.
## 10 AL    3294073.      225.
## # ... with 41 more rows

merged %>% arrange(desc(mean_pop))

## # A tibble: 51 x 3
##    state  mean_pop avg_state
##    <chr>     <dbl>     <dbl>
##  1 CA    16665527.      192.
##  2 NY    14968232.      220.
##  3 TX    11252009.      166.
##  4 PA    10541881.      207.
##  5 IL     9407587.      219.
##  6 OH     8624785.      215.
##  7 MI     6886250.      189.
##  8 FL     6810191.      211.
##  9 NJ     5683516.      178.
## 10 MA     4986927.      204.
## # ... with 41 more rows
…
## Observations: 51
## Variables: 5
## $ state         <chr> "AK", "AL", "AR", "AZ", "CA", "CO", "CT", "DC", "DE",...
## $ mean_pop      <dbl> 457582.5, 3294073.2, 2047457.6, 2044898.4, 16665526.6...
## $ avg_state     <dbl> 214.1857, 224.9336, 228.6007, 175.3167, 191.6351, 174...
## $ female_cancer <dbl> 183.2812, 162.3254, 169.5547, 143.9933, 161.0070, 150...
## $ male          <dbl> 261.7000, 287.5418, 287.6467, 206.6400, 222.2632, 204...

complete %>% arrange(desc(female_cancer))

## # A tibble: 51 x 5
##    state mean_pop avg_state female_cancer  male
##    <chr>    <dbl>     <dbl>         <dbl> <dbl>
##  1 AK     457582.      214.          183.  262.
##  2 KS    2135756       240.          182.  298.
##  3 WA    3162419.      227.          181.  272.
##  4 KY    3139753.      241.          180.  301.
##  5 DE     461635.      224.          178.  270.
##  6 NH     737558.      213.          178.  249.
##  7 LA    3112672.      220.          178.  263.
##  8 VT     442690.      227.          175.  279.
##  9 NM     964448.      210.          174.  247.
## 10 NE    1445529.      213.          173.  252 
## # ... with 41 more rows

complete %>% arrange(desc(male))

## # A tibble: 51 x 5
##    state  mean_pop avg_state female_cancer  male
##    <chr>     <dbl>     <dbl>         <dbl> <dbl>
##  1 MN     3437172.      235.          168.  301.
##  2 KY     3139753.      241.          180.  301.
##  3 KS     2135756       240.          182.  298.
##  4 RI      819150.      227.          164.  290.
##  5 AR     2047458.      229.          170.  288.
##  6 AL     3294073.      225.          162.  288.
##  7 GA     4755548.      226.          166.  287.
##  8 SD      665790.      228.          172.  285.
##  9 VT      442690.      227.          175.  279.
## 10 NY    14968232.      220.          165.  276.
## # ... with 41 more rows
…
